#include "stdafx.h"
#include "trfGeneration.h"


trfGeneration ::trfGeneration(){}
trfGeneration ::~trfGeneration(){}



int number_of_lines = 0;
int number_of_chars = 0;
int subnet_order;

vector <int> startlink;

int crsm_id = 1;
int boundary_node = 8999; //8999~8000 boundary node

void trfGeneration::IDTF(int node1, int node2)
{
	VISTA_NODE = node1;
	CM_NODE = node2;

	for (int j = 0; j < 80; j ++)	
	{
		TRF_210.push_back(' ');
		TRF_170.push_back(' ');
	}
	TRF_210.push_back('\n');
	TRF_170.push_back('\n');
	
	TRF_210[3]='1';
	TRF_210[7]='0';
	TRF_210[11]='0';
	TRF_210[77]='2';
	TRF_210[78]='1';
	TRF_210[79]='0';

	TRF_170[3]='1';
	TRF_170[77]='1';
	TRF_170[78]='7';
	TRF_170[79]='0';

}
void trfGeneration::getVistaLinks()
{	
	ifstream file ( "D:\\Amber\\\corsim_test\\input\\linkdetails.csv" ); 
	//int iCols = CC.GetTotalColumns();   // ???
	//int iRows = CC.GetTotalRows();    // ???
	//int iCurRow = CC.GetCurrentRow(); // ??????
	//fprintf(stderr, "column: %d, row: %d", iCols, iRows);
	int id;
	int org;
	int dest;
	float length;
	float speed;
	int capacity;
	int lanes;
	int type;
	string value;
	int rows_pos = 1;
	while ( file.good())	
	{
		int id;
		int org;
		int dest;
		float length;
		float speed;
		int capacity;
		int lanes;
		int type;
		string value;

		getline ( file, value, ',' );
		if (value=="") 
			break;
		id=stoi(value);

		getline ( file, value, ',' );
		type=stoi(value);

		getline ( file, value, ',' );
		org=stoi(value);

		getline ( file, value, ',' );
		dest=stoi(value);

		getline ( file, value, ',' );
		length=stof(value);

		getline ( file, value, ',' );
		speed=stof(value);

		getline ( file, value, ',' );
		capacity=stoi(value);

		getline ( file, value, '\n' );
		lanes=stoi(value);

		link lk;
		lk.details(id, type, org, dest, length, speed, capacity, lanes); 
		linklist.push_back(lk);
		
		if (type == 100)
		{
			vector <int>inf;
			inf.push_back(id);
			inf.push_back(org);
			inf.push_back(dest);
			vista_connectors_nodes.push_back(inf);
		}
	}
}

double x_initial = 100000000;
double y_initial= 100000000;
void trfGeneration::getVistaNodes()
{	
	ifstream file ("D:\\Amber\\corsim_test\\input\\node.csv"); 

	int rows_pos = 1;
	int id;
	double x_axle;
	double y_axle;
	int flag; //=0 unread, =1 read
	int type;
	while ( file.good())	
	{
		string value;	
		getline ( file, value, ',' );
		if (value=="") break;
		id=stoi(value);
		
		getline ( file, value, ',' );
		type=stoi(value);

		getline ( file, value, ',' );
		x_axle=stod(value);

		getline ( file, value, '\n' );
		y_axle=stod(value);
		
		node nd;
		nd.vista_locate(id, type, x_axle, y_axle); 
		vsta_ndlist.push_back(nd);
		vsta_ndlist.size();	
		if (x_axle < x_initial)		x_initial = x_axle;	
		if ( y_axle < y_initial)	y_initial = y_axle;	
		/*
		for (lk_pos =linklist.begin(); lk_pos!= linklist.end(); lk_pos++)
		{
			int org = (*lk_pos).returnVistaOrg();
			int dest = (*lk_pos).returnVistaDest();
			if (org == id || dest== id)
			{
				node nd;
				nd.vista_locate(id, type, x_axle, y_axle); 
				vsta_ndlist.push_back(nd);
				vsta_ndlist.size();	
				if (x_axle < x_initial)		x_initial = x_axle;	
				if ( y_axle < y_initial)	y_initial = y_axle;	
				rows_pos++;
				break;
			}
		}
		*/
		
	}
}
void trfGeneration::DefineCentroids()
{
	int size =vsta_ndlist.size();	
	cout << "size : " <<  size  << "\n"; 
	
	vector < vector <int>> centroids;
	for( nd_pos = vsta_ndlist.begin(); nd_pos != vsta_ndlist.end(); nd_pos++)  //define the corsim node in database vista_corsim_nodes, if its centroid, save to database centroids and skip!
	{
		int id = (*nd_pos).vsta_ID(); 
		if( (*nd_pos).returnVstaType() == 100) //find centroids
		{
			vector <int> inf;
			inf.push_back(id);
			inf.push_back(0);
			centroids.push_back(inf);
			continue;
		}
		(*nd_pos).corsim_position(crsm_id, x_initial, y_initial);
		float x = (*nd_pos).vsta_X();
		float y = (*nd_pos).vsta_Y();	
		int x2 = (*nd_pos).crsm_X();
		int y2 = (*nd_pos).crsm_Y();
		vector <int> inf;
		inf.push_back(id);
		inf.push_back(crsm_id);
		vista_corsim_nodes.push_back(inf);
		crsm_id++;
	}	

	int boundary_bool = 0;
	int new_centroid = 0;
	int centroid_number = 0;
	for (int i = 0; i < vista_corsim_nodes.size(); i ++)  //to find which centroids are the same.
	{		
		 new_centroid = 0;
		int vista_node = vista_corsim_nodes[i][0]% 100000;
		for (int j = 0; j < centroids.size(); j ++) 
		{
			if (vista_corsim_nodes[i][0]+150000 == centroids[j][0] || vista_corsim_nodes[i][0]+250000 == centroids[j][0] )  //new centroids for subnetwork
			{
				if ( new_centroid == 0) centroid_number++;
				new_centroid =1;
				centroids[j][1] = centroid_number;
			}	
		}
	}

	for (int i = 0; i < centroids.size(); i ++) 
	{			
		if (centroids[i][1] >0 ) continue;			
		int centroid_id = centroids[i][0]% 100000;
		new_centroid = 0;
		for (int j = 0; j < centroids.size(); j ++) 
		{
			if ( centroid_id ==centroids[j][0]% 100000 )  //new centroids for subnetwork
			{
				if ( new_centroid == 0) centroid_number++;
				new_centroid =1;
				centroids[j][1] = centroid_number;
			}	
		}
	}
	for (int i = 0; i < centroids.size(); i ++) 
	{			
		cout<<"centroid: " << centroids[i][0] << " number: " << centroids[i][1] <<"\n";
	}

	/*&&&&&&&&&&&&&&&&&&&&&&&&&*/

	vector <vector <int>> centroid_same_dnnode;
	for (int i = 0; i < vista_connectors_nodes.size(); i ++)  //to find which centroids are the same.
	{
	
		int upnode1 = vista_connectors_nodes[i][1];
		int dnnode1 = vista_connectors_nodes[i][2];
		if (vista_connectors_nodes[i][0] /100000 == 3)
		{
			vector <int> inf;
			for (int j = i + 1; j < vista_connectors_nodes.size(); j ++)  
			{
				int upnode2 = vista_connectors_nodes[j][1];
				int dnnode2 = vista_connectors_nodes[j][2];
				if (upnode1==upnode2) 
				{	
					inf.push_back(dnnode2);
				}
			}
			if (inf.size()!= 0) 
			{
				inf.push_back(dnnode1);
				centroid_same_dnnode.push_back(inf);
			}
		}
		if (vista_connectors_nodes[i][0] /100000 == 2)
		{
			vector <int> inf;
			for (int j = i + 1; j < vista_connectors_nodes.size(); j ++)  
			{
				int upnode2 = vista_connectors_nodes[j][1];
				int dnnode2 = vista_connectors_nodes[j][2];
				if (dnnode1==dnnode2) inf.push_back(upnode2);
			}
			if (inf.size()!= 0) 
			{
				inf.push_back(upnode1);
				centroid_same_dnnode.push_back(inf);
			}
		}	
	}
	for (int i = 0; i < centroid_same_dnnode.size(); i ++)  //to find which centroids are the same.
	{
		for (int j = 0; j < centroid_same_dnnode[i].size(); j ++)  //to find which centroids are the same.
		{
			cout<<centroid_same_dnnode[i][j]<<"\t";
		}
		cout<<"\n";
	}

	for (int i = 0; i < centroid_same_dnnode.size(); i ++)  //to find the number of connectors
	{
		/*
		we want to find all the connectors of the centroid. 
		The size of connectors is the same as the size of centroids (centroid_same_dnnode[i].size()).
		The number of connectors should be add at the j.  if find a connector at centorid j, connectors[j]++
		*/
		vector <int> connectors;
		connectors.resize(centroid_same_dnnode[i].size());
		std::fill(connectors.begin(), connectors.end(), 0);
	
		for (int j = 0; j < centroid_same_dnnode[i].size(); j ++)  //to find which centroids are the same.
		{
			int node =centroid_same_dnnode[i][j];
			for (int k = 0; k <  vista_connectors_nodes.size(); k++)
			{
				int connector_upnode =  vista_connectors_nodes[k][1];
				int connector_dnnode =  vista_connectors_nodes[k][2];
				if (connector_upnode == node ||connector_dnnode == node ) 
				{	
					connectors[j] ++;
				}
			}
		}
		/*
			Only one situation has two centroids but one network node, one centroid is created by the subnetwork and the other one is from the original network.
			We can only have one centroid. Since the centroid from the orignal network might have other connectors, we would remove the centroid from the subnetwork. 
			The traffic from the subnetwork centroid will be added to the orignal network centroid.   
			However, its hard to define which centroid is from the subnetwork, we use the number of the connectors to presume it. If the both centroids have the same connectors,
			we choose the centroid randomly. 
		*/
		if (connectors[0]> connectors[1])
		{
			int vista_centroid = centroid_same_dnnode[i][0];
			int vista_centroid_revised = centroid_same_dnnode[i][1];
			int corsim_centroid = 0;
			for (int j = 0; j < centroids.size(); j ++)  
			{
				if (vista_centroid==centroids[j][0]) 
				{
					corsim_centroid = centroids[j][1];
					break;
				}
			}

			for (int j = 0; j < centroids.size(); j ++)  
			{
				if ( vista_centroid_revised==centroids[j][0]) 
				{
					centroids[j][1] = corsim_centroid;
					break;
				}
			}
		}
		else 
		{
			int vista_centroid = centroid_same_dnnode[i][1];
			int vista_centroid_revised = centroid_same_dnnode[i][0];
			int corsim_centroid = 0;
			for (int j = 0; j < centroids.size(); j ++)  
			{
				if (vista_centroid==centroids[j][0]) 
				{
					corsim_centroid = centroids[j][1];
					break;
				}
			}
			for (int j = 0; j < centroids.size(); j ++)  
			{
				if ( vista_centroid_revised==centroids[j][0]) 
				{
					centroids[j][1] = corsim_centroid;
					break;
				}
			}
		
		}
	}
	for (int i = 0; i < centroids.size(); i ++)  
	{
		cout << "centroid: \t"<< centroids[i][0]<<"corsim_node: \t"<< centroids[i][1]<<"\n";
	}	

	for (int i = 0; i < centroids.size(); i ++)
	{		
		vista_corsim_nodes.push_back(centroids[i]);
	}

	for( int i = 0; i < vsta_ndlist.size(); i++ )  //define the corsim node in database vista_corsim_nodes, if its centroid, save to database centroids and skip!
	{
		if (vsta_ndlist[i].returnVstaType()==100)
		{
			int vista_id = vsta_ndlist[i].returnVstaNode();
			for (int j = 0; j < centroids.size(); j ++)
			{	
				if (vista_id == centroids[j][0]) 
				{
					int corsim_id = centroids[j][1];
					vsta_ndlist[i].corsim_position(corsim_id, x_initial, y_initial);
					break;
				}
			}
		}		

	}

	/*
	cout<<"%%%%%%%%%%%%%%%%%%%%%%%%%%%%%%%%%%%%%%%%%%%\n";
	vector <int> all_connected_nodes;
	for (int i = 1; i <=centroid_number; i ++ )
	{
		vector <int> inf;
		cout<<"\n centroid\t";
		for (int j = 0; j < centroids.size(); j ++) 
		{
			if (i==centroids[j][1])
			{
				inf.push_back(centroids[j][0]);
				cout<<centroids[j][0]<<"\t";
			}
		}
		vector <int> connected_nodes; 
		cout<<"\n connected nodes\t";
		for (int j = 0; j < linklist.size(); j ++)
		{
			int upnode = linklist[j].returnVistaOrg();
			int dnnode = linklist[j].returnVistaDest();
			//int id = linklist[j].returnVistaID();
			for (int k = 0; k < inf.size(); k ++)
			{
				if (upnode ==inf[k]) connected_nodes.push_back(dnnode);
				if (dnnode ==inf[k]) connected_nodes.push_back(upnode);
			}
		}
		for (int j = 0; j < connected_nodes.size(); j ++)
		{
			cout<<connected_nodes[j]<<"\t";
		}
		
	}
	*/


 	for (int i = 0; i < centroids.size(); i ++) //give centroids CORSIM's entry node id
	{
		if (centroids[i][1] != 0) continue;
		int centroid_i = centroids[i][0]% 100000;
		vector <int> inf;
		inf.push_back(centroid_i);
		for (int j = 0; j < centroids.size(); j ++)
		{
			if (i== j || centroids[j][1] != 0) continue;
			int centriod_j = centroids[j][0]% 100000;
			if (centroids[i][0] % 100000 == centroids[j][0] % 100000)
			{
				inf.push_back(centroid_i);
			}				
		}
		if (inf.size() == 2)		//only one directions
		{
			centroids[i][1]=crsm_id;
			vista_corsim_nodes.push_back(centroids[i]);
			for (int j = 0; j < centroids.size(); j ++)
			{
				if (centroids[i][0] % 100000 == centroids[j][0] % 100000)
				{					
					centroids[j][1] = crsm_id;
					vista_corsim_nodes.push_back(centroids[j]);
					break;
				}
			}
			crsm_id++;
		}
		if(inf.size()<2)
		{
			cout<<"Problems: only one connector in VISTA \n";
		}
		else
		{
			centroids[i][1]=boundary_node;
			vista_corsim_nodes.push_back(centroids[i]);
			for (int j = 0; j < centroids.size(); j ++)
			{
				if (centroids[i][0] % 100000 == centroids[j][0] % 100000)  
				{
					centroids[j][1] = boundary_node;
					vista_corsim_nodes.push_back(centroids[j]);
				}
			}			
			boundary_node--;
			continue;
		}
	}

	for (int i = 0; i < centroids.size(); i ++) 
	{
		if (centroids[i][1] == 0)  //new centroid from subnetwork
		{
			cout<<"Problems: cannot find the connected node which matchs the new centroids \n";	
		}
	}

	/*
	for (int i = 0; i < centroids.size(); i ++) 
	{
		int vector_linkid = centroids[i][0];
		for (int j = 0; j < vsta_ndlist.size(); j ++) 
		{
			int class_linkid = vsta_ndlist[j].vsta_ID();
			if(vector_linkid == class_linkid)
			{
				 vsta_ndlist[j].
			}
		
		}
	}*/
	/*
	for (int i = 0; i < centroids.size(); i ++) 
	{
		int bool_boundary = 0;
		if (centroids[i][1] == 1) continue;
		for (int j = 0; j < vista_corsim_nodes.size(); j ++)
		{
			int vista_node = vista_corsim_nodes[j][0]%10000;
			if (vista_corsim_nodes[j][0]+150000 == centroids[i][0])  //new centroids for subnetwork
			{
				bool_boundary = 1;
				break;
			}			
		}
		for (int j = 0; j < centroids.size(); j ++)
		{
			if (i== j || centroids[j][1] == 1) continue;
			int centriod_i = centroids[i][0]% 100000;
			int centriod_j = centroids[j][0]% 100000;

			if (centroids[i][0]% 100000 == centroids[j][0]% 100000)
			{
				centroids[i][1] = 1;
				centroids[j][1] = 1;
				for( nd_pos = vsta_ndlist.begin(); nd_pos != vsta_ndlist.end(); nd_pos++)
				{
					int id = (*nd_pos).vsta_ID();
					if (id == centroids[i][0] || id ==centroids[j][0] )  
					{
						int new_id;
						if( bool_boundary == 1) 
						{	
							new_id = boundary_node;
						}
						else 
						{
							new_id = crsm_id;
						}
						(*nd_pos).corsim_position(new_id, x_initial, y_initial);	

						vector <int> inf;
						inf.push_back(id);
						inf.push_back(new_id);
						vista_corsim_nodes.push_back(inf);
					}
				}
				if( bool_boundary == 1) boundary_node --;
				else crsm_id++;
				break;
			}
		}
		if (centroids[i][1] == 0)
		{
			for( nd_pos = vsta_ndlist.begin(); nd_pos != vsta_ndlist.end(); nd_pos++)
			{
				int id = (*nd_pos).vsta_ID();
				if (id == centroids[i][0] )   ///UNTIL Here!!!! need to define centroid regions
				{
					(*nd_pos).corsim_position(boundary_node, x_initial, y_initial);
					float x = (*nd_pos).vsta_X();
					float y = (*nd_pos).vsta_Y();	
					int x2 = (*nd_pos).crsm_X();
					int y2 = (*nd_pos).crsm_Y();
					vector <int> inf;
					inf.push_back(id);
					inf.push_back(boundary_node);
					vista_corsim_nodes.push_back(inf);
					boundary_node--;
					break;
				}
			}		
		
		}
	}*/
	if (crsm_id > 6999) 
	{	
		cout<< "The CORSIM NETWORK IS TOO LARGE: TOO MANY CONNECTED NODES! \n";
	}
	if (boundary_node < 8000)
	{	
		cout<< "The CORSIM NETWORK IS TOO LARGE: TOO MANY BOUNDARY NODES! \n";
	}

	/*
	for (int i = 0; i < centroids.size(); i ++)
	{
		int id = centroids[i][0];
		int crsm_id = 0;
		if (centroids[i][1] == 1) continue;
		for( nd_pos = vsta_ndlist.begin(); nd_pos != vsta_ndlist.end(); nd_pos++)
		{
			if (id -150000 == (*nd_pos).vsta_ID() ) 
			{
				crsm_id = (*nd_pos).crsm_ID();
				break;
			}
		}
		for( nd_pos = vsta_ndlist.begin(); nd_pos != vsta_ndlist.end(); nd_pos++)
		{
			if (id == (*nd_pos).vsta_ID())   
			{
				(*nd_pos).corsim_position(crsm_id, x_initial, y_initial);
				vector <int> inf;
				inf.push_back(id);
				inf.push_back(crsm_id);
				vista_corsim_nodes.push_back(inf);
				break;
			}
		}		
	}*/
	ofstream node_output ("D:\\Amber\\\corsim_test\\output\\node_output.xls"); //output trf content into text file (for test)
	for( nd_pos = vsta_ndlist.begin(); nd_pos != vsta_ndlist.end(); nd_pos++)
	{
		int id = (*nd_pos).vsta_ID();
		int crsm_id = (*nd_pos).crsm_ID();
		float x = (*nd_pos).vsta_X();
		float y = (*nd_pos).vsta_Y();	
		int x2 = (*nd_pos).crsm_X();
		int y2 = (*nd_pos).crsm_Y();
		node_output << id << "\t"<< crsm_id<<"\t"<< x << "\t" <<  y << "\t" << x2 <<"\t" << y2<<  "\n";
		
	}
	node_output<<endl;
	

}

void trfGeneration::getParkingLinks()
{
	int size = linklist.size();	
	cout << "size : " <<  size  << "\n"; 
	int id;
	int org;
	int dest;
	float length;
	float speed;
	int capacity;
	int lanes;
	int type;

	ofstream output ("D:\\Amber\\\corsim_test\\output\\linklist.xls");
	for( lk_pos = linklist.begin(); lk_pos != linklist.end(); lk_pos++)
	{
		id = (*lk_pos).returnVistaID();
		type = (*lk_pos).returnVistaType();
		org = (*lk_pos).returnVistaOrg();
		dest = (*lk_pos).returnVistaDest();
		length = (*lk_pos).returnVistaLength();
		speed = (*lk_pos).returnVistaSpeed();
		lanes = (*lk_pos).returnVistaLanes();
		capacity = (*lk_pos).returnVistaCapacity();
		int org_pos[2];
		int dest_pos[2];
		int orient_x = 0;
		int orient_y = 0;
		for (int i = 0; i < 2; i ++)
		{
			org_pos[i] = 0;
			dest_pos[i] = 0;
		}
		for ( nd_pos = vsta_ndlist.begin(); nd_pos< vsta_ndlist.end(); nd_pos++)
		{
			if ((*nd_pos).vsta_ID()== org) 
			{
				org_pos[0]= (*nd_pos).crsm_X();
				org_pos[1]= (*nd_pos).crsm_Y();
			}
			if ((*nd_pos).vsta_ID()== dest) 
			{
				dest_pos[0]= (*nd_pos).crsm_X();
				dest_pos[1]= (*nd_pos).crsm_Y();
			}

			if(org_pos[0]!= 0 && dest_pos[0]!= 0)
			{
				vector <int> orient;
				orient_x = dest_pos[0] - org_pos[0];
				orient_y = dest_pos[1] - org_pos[1];
				orient.push_back(orient_x);
				orient.push_back(orient_y);
				(*lk_pos).orientation(orient);	
				break;
			}
		}
		output << id << "\t" <<  type <<"\t" << org << "\t" <<  dest << "\t" <<  length << "\t" <<  speed << "\t" <<  capacity << "\t" <<  lanes << "\n"; 
	}
	ofstream output1 ("D:\\Amber\\\corsim_test\\output\\linkorient.xls");
	for( lk_pos = linklist.begin(); lk_pos != linklist.end(); lk_pos++)
	{
		id = (*lk_pos).returnVistaID();
		vector <int> orient = (*lk_pos).returnOrient();
		int angle = (*lk_pos).returnAngle();
		output1 << id << "\t" <<  orient[0]<<  "\t"<< orient[1]<<"\t"<< angle <<"\n"; 

	}
	ofstream output2 ("D:\\Amber\\\corsim_test\\output\\link_nodes.xls");   //need to change the code!!!!!!!!!!!!!!!!!!!!!!!!!!!!!!!
	for( lk_pos = linklist.begin(); lk_pos != linklist.end(); lk_pos++)
	{
		id = (*lk_pos).returnVistaID();
		org = (*lk_pos).returnVistaOrg();
		dest = (*lk_pos).returnVistaDest();
		vector <int> dns = (*lk_pos).returnDownstreams();

		vector <int> inf;
		inf.push_back(id);
		inf.push_back(org);
		inf.push_back(dest);
		int crm_org = 0;
		int crm_dest = 0;
		for (int i = 0; i < vista_corsim_nodes.size(); i++)
		{
			if (vista_corsim_nodes[i][0] == org) crm_org = vista_corsim_nodes[i][1];
			else if (vista_corsim_nodes[i][0] == dest) crm_dest = vista_corsim_nodes[i][1];
			if (crm_org != 0 && crm_dest != 0) break;
		}
		inf.push_back(crm_org);
		inf.push_back(crm_dest);
		vista_links.push_back(inf);
	}
	lk_pos = linklist.begin();
	for (int i = 0; i < vista_links.size(); i ++)
	{
		for (int j = 0; j < vista_links[i].size(); j ++)
		{
			output2<<vista_links[i][j]<<"\t";
		}
		output2<<"\n";
		int link_id = vista_links[i][0];
		int corsm_up = vista_links[i][3];
		int corsm_dn = vista_links[i][4];

		if ((*lk_pos).returnVistaID()==link_id)
		{
			(*lk_pos).CosimNodes(corsm_up, corsm_dn);
		}
		else 
		{
			int abc =123;
		}
		lk_pos++;
	}
}

void trfGeneration::getVistaNetwork()
{
	vista_network.resize(linklist.size());
	for (int i = 0; i < linklist.size(); i ++)
	{
		vista_network[i].resize(linklist.size());
		for (int j = 0; j < linklist.size(); j ++)
		{
			vista_network[i][j]=0;
			if (i==j) continue;
			if (vista_links[i][4]==vista_links[j][3] && vista_links[i][3]!=vista_links[j][4])	vista_network[i][j]=1;
			if (vista_links[i][4]==vista_links[j][3] && vista_links[i][3] ==vista_links[j][4]) 
			{
				int times = 0;
				for( lk_pos = linklist.begin(); lk_pos != linklist.end(); lk_pos++) //find upstream's orientation
				{
					int linkid = (*lk_pos).returnVistaID();
					if (linkid == vista_links[i][0])
					{
						times++;
						(*lk_pos).Twoways( vista_links[j][0]);
					}
					else if (linkid == vista_links[j][0])
					{
						times++;	
						(*lk_pos).Twoways( vista_links[i][0]);
					}
					if (times== 2) break;
				}				
			}
		}
	}
	ofstream output ("D:\\Amber\\\corsim_test\\output\\network.xls");
	for (int i = 0; i < linklist.size(); i ++)
	{
		vector <vector <int>> downstreams;  //0=id, 1=angle
		int uplink_id = vista_links[i][0];
		int uplink_org = vista_links[i][1];
		int uplink_dest = vista_links[i][2];
		//vector <int> upstream_orient;
		float uplink_length;
		int uplink_angle;
		for (int j = 0; j < linklist.size(); j ++)  //to find downstream links
		{
			if (vista_network[i][j]==1) 
			{
				//output<< vista_links[i][0]<<"\t"<<vista_links[j][0]<<"\n";
				vector <int> inf;
				inf.push_back(vista_links[j][0]);
				downstreams.push_back(inf);
			}
		}
		for( lk_pos = linklist.begin(); lk_pos != linklist.end(); lk_pos++) //find upstream's orientation
		{
			if (uplink_id == (*lk_pos).returnVistaID()) 
			{
				int id = (*lk_pos).returnVistaID();
				//upstream_orient = (*lk_pos).returnOrient();
				uplink_length = (*lk_pos).returnCORSIMLength();
				uplink_angle = (*lk_pos).returnAngle();
				//cout<<"\n"<<angle_cos << "\t" << angle_sin << "\n";
				break;
			}
		}
		int revise_angle = 180 - uplink_angle;
		int size = downstreams.size();	
		for (int j=0; j < size; j ++)  //find downstream's orientation
		{
			for( lk_pos = linklist.begin(); lk_pos != linklist.end(); lk_pos++)
			{
				int id = (*lk_pos).returnVistaID();
				if (id == downstreams[j][0])
				{
					int angle = (*lk_pos).returnAngle();
					downstreams[j].push_back(angle);

					/*
					vector <int> downstream_orient = (*lk_pos).returnOrient();
					int orient_x = downstream_orient[0] - upstream_orient[0];
					int orient_y = downstream_orient[1] - upstream_orient[1];
					downstreams[j].push_back(orient_x);
					downstreams[j].push_back(orient_y);
					float downlink_length = (*lk_pos).returnVistaLength();
					float inner_product = float ((upstream_orient[0]*downstream_orient[0] + upstream_orient[1]*downstream_orient[1])/(uplink_length*downlink_length)); 
					output<< uplink_id <<"\t" << downstreams[j][0] << "\t" << inner_product << "\n";
					*/
					output<< uplink_id <<"\t" << downstreams[j][0] << "\t" << angle << "\n";
					break;
				}
			}
		}
		vector <int> left;
		left.resize(size);
		int angle[2];

		for (int j=0; j < size; j ++) left[j] = 1;
		for (int j=0; j < size; j ++)   //define downstream's left through right
		{
			for (int k = j+1; k < size; k ++)
			{
				angle[0] = downstreams[j][1];
				angle[1] =  downstreams[k][1];
				for (int z = 0; z < 2; z ++) 
				{	
					angle[z]+= revise_angle;					
					if (angle[z] > 360) angle[z] -= 360;
					else if (angle[z] < 0) angle[z] += 360;
				}

				if (angle[0] >=angle[1])left[k]++;
				else left[j]++;
			}
		}
		for (int j=0; j < size; j ++)
		{
			downstreams[j].push_back(left[j]);
			output<< uplink_id <<"\t" << downstreams[j][0] << "\t" << left[j]<< "\n";
		}
		for( lk_pos = linklist.begin(); lk_pos != linklist.end(); lk_pos++) //find upstream's orientation
		{
			if (uplink_id == (*lk_pos).returnVistaID()) 
			{
				int id = (*lk_pos).returnVistaID();
				(*lk_pos).Downstreams(size,downstreams);
				break;
			}
		}
	}
}
void trfGeneration::getTRF()
{
	ifstream fin;
	fin.open("D:\\Amber\\\corsim_test\\test.trf", ios::in);

	char my_character ;
	while (!fin.eof() ) 
	{
		fin.get(my_character);
		number_of_chars++;
		pTRF.push_back(my_character);
		cout << my_character;  //print characters
		if (my_character == '\n')
		{
			++number_of_lines;
		}
	}
	cout << "NUMBER OF LINES: " << number_of_lines << " \n" << endl;
	fin.close();

	ofstream newTRF ("D:\\Amber\\\corsim_test\\test1.trf"); //output trf content into text file (for test)
	for (int i = 0; i < pTRF.size() -1; i++)
	{
		newTRF << pTRF[i];
	}	
}
void trfGeneration::Type195_node()
{
	for (int num_char = 0; num_char <vsta_ndlist.size();num_char++ )
	{
		for (int j = 0; j < 80; j ++)	TRF_195.push_back(' ');
		TRF_195.push_back('\n');
	}
	int i = 0;
	int node[3]; // 0 = id, 1 = x, 2= y
	int pos[3]; //0=id position, 1 = x position, 2=y's position
	for( nd_pos = vsta_ndlist.begin(); nd_pos != vsta_ndlist.end(); nd_pos++)
	{
		node[0] = (*nd_pos).crsm_ID();
		node[1] = (*nd_pos).crsm_X();
		node[2] = (*nd_pos).crsm_Y();
		pos[0] = 3;  //1~4 id
		pos[1] = 11; //7 - 12 X coordinate (1-999999 Feet)
		pos[2] = 19; //15 - 20 Y coordinate (1-999999 Feet)
		for (int order = 0; order < 3; order ++)
		{
			char buffer [16];
			sprintf(buffer, "%d",node[order]);

			int tens = 0;
			while (float(node[order]) / double(pow(10.0,tens))>=10) tens++;
				

			for (int j = 0; j <= tens; j++) 
			{
				TRF_195[i*81 + pos[order]- j]=buffer[tens-j];
			}
			/*
			if (node[order]/1000 > 0)
			{
				for (int j = 0; j < sizeof(buffer)-1;j++)	
			}
			else if (node[order]/100 > 0)
			{
				for (int j = 0; j < sizeof(buffer)-2;j++)	TRF_195[i*82 + pos[order] + 1 + j]=buffer[j];
			}
			else if (node[order]/10 > 0)
			{
				for (int j = 0; j < sizeof(buffer)-3;j++)	TRF_195[i*82 + pos[order] + 2 + j]=buffer[j];
			}			
			else TRF_195[i*82+ pos[order] + 3]=buffer[0]; */
		}
		TRF_195[i*81+77]='1';
		TRF_195[i*81+78]='9';
		TRF_195[i*81+79]='5';
		
		i++;
		cout << node[0] <<"\t"<< node[1] << "\t" <<  node[2] << "\n"; 
	}
}

void trfGeneration::getVISTAPath()
{
	ifstream file ( "D:\\Amber\\\corsim_test\\input\\vehicle_path.csv" ); 
	//int iCols = CC.GetTotalColumns();   // ???
	//int iRows = CC.GetTotalRows();    // ???
	//int iCurRow = CC.GetCurrentRow(); // ??????
	//fprintf(stderr, "column: %d, row: %d", iCols, iRows);
	int id;
	int origin;
	int dest;
	int path_size; //=0 unread, =1 read
	int freeflowtt;
	int length;
	string links;
	string value;
	int rows_pos = 1;
	while ( file.good())	
	{
		getline ( file, value, ',' );
		if (value == "") break;
		id=stoi(value);

		getline ( file, value, ',' );
		origin=stoi(value);
		
		getline ( file, value, ',' );
		dest=stoi(value);

		getline ( file, value, ',' ); //hash 

		getline ( file, value, ',' );
		path_size=stoi(value);

		getline ( file, value, ',' );
		freeflowtt=stoi(value);

		getline ( file, value, ',' );
		length=stoi(value);

		getline ( file, value, ',' ); //issimpath		

		getline ( file, value, '"' );
		getline ( file, value, '"' );
		links=value;
		CString cs(links.c_str());

		path pth;
		pth.PathInfo(id, origin, dest, path_size, freeflowtt, length, cs);
		vsta_pathlist.push_back(pth);
		vsta_pathlist.size();

	}
	
	ofstream path_list ("D:\\Amber\\\corsim_test\\output\\path_list.xls");
	for (path_pos = vsta_pathlist.begin(); path_pos!= vsta_pathlist.end(); path_pos++)
	{
		id = (*path_pos).returnPathID();
		origin=(*path_pos).returnOrg();
		dest=(*path_pos).returnDest();
		path_size=(*path_pos).returnSize();
		freeflowtt=(*path_pos).returnFreeflowtt();
		length=(*path_pos).returnLength();
		links=(*path_pos).returnLinks();
		vector <int> linklist = (*path_pos).returnLinklist();
		
		//cout<<id<<"\t"<<origin<<"\t"<<dest<<"\t"<<path_size<<"\t"<<freeflowtt<<"\t"<<length<<"\t"<<links<<"\n";
		path_list<<id<<"\t"<<origin<<"\t"<<dest<<"\t"<<path_size<<"\t"<<freeflowtt<<"\t"<<length<<"\t";
		for (int i = 0; i < linklist.size(); i ++)
		{
			path_list<<linklist[i]<<"\t";
		}
		path_list<<"\n";
	}

}
void trfGeneration::getVolume()
{
	//CSpreadSheet CC("D:\\Amber\\corsim_test\\path_time.xls", "path_time");
	//CStringArray Rows, Column;
	//CString CValue;

	ifstream file ( "D:\\Amber\\\corsim_test\\input\\path_time.csv" ); 
	//int iCols = CC.GetTotalColumns();   // ???
	//int iRows = CC.GetTotalRows();    // ???
	//int iCurRow = CC.GetCurrentRow(); // ??????
	//fprintf(stderr, "column: %d, row: %d", iCols, iRows);
	
	int rows_pos = 1;
	while ( file.good())
	{	
		int id;
		int type;
		int dta_departure;
		int sim_departure; //=0 unread, =1 read
		int sim_exittime;
		int dta_path;
		int sim_path;
		std:: string value;
		string arrivaltime;
		
		getline( file, value, ',' );
		if (value == "") break;		
		id=stoi(value);

		getline ( file, value, ',' );
		type=stoi(value);

		getline ( file, value, ',' );
		dta_departure =stoi(value);	

		getline ( file, value, ',' );
		sim_departure=stoi(value);	

		getline ( file, value, ',' );
		sim_exittime=stoi(value);	

		getline ( file, value, ',' );
		dta_path=stoi(value);	

		getline ( file, value, ',' );
		sim_path=stoi(value);	
		
		getline ( file, value, '"' );
		getline ( file, value, '"' );
		arrivaltime=value;
		CString cs(arrivaltime.c_str());


		for (path_pos = vsta_pathlist.begin(); path_pos!= vsta_pathlist.end(); path_pos++)
		{
			int path_id = (*path_pos).returnPathID();
			if (path_id == dta_path) 
			{
				(*path_pos).trackings( id,  type,  dta_departure,  sim_departure,  sim_exittime,  dta_path,  sim_path,  cs);
				break;
			}
		}
		rows_pos++;
	}
	/*
	for (rows_pos = 2;  rows_pos <= iRows; rows_pos++)
	{
		cols_pos = 1;
		CC.ReadCell(CValue,cols_pos, rows_pos);
		id=atoi(CValue);

		cols_pos ++;
		CC.ReadCell(CValue, cols_pos, rows_pos);
		type=atoi(CValue);	

		cols_pos ++;
		CC.ReadCell(CValue, cols_pos, rows_pos);
		dta_departure =atoi(CValue);		

		cols_pos ++;
		CC.ReadCell(CValue, cols_pos, rows_pos);
		sim_departure=atoi(CValue);		

		cols_pos ++; //sim_exittime
		CC.ReadCell(CValue, cols_pos, rows_pos);
		sim_exittime=atoi(CValue);	

		cols_pos ++; //dta_path
		CC.ReadCell(CValue, cols_pos, rows_pos);
		dta_path=atoi(CValue);	

		cols_pos ++; //sim_path
		CC.ReadCell(CValue, cols_pos, rows_pos);
		sim_path=atoi(CValue);	
		
		cols_pos ++; //arrivaltime	
		CC.ReadCell(CValue, cols_pos, rows_pos);
		arrivaltime=CValue;
		
		if (dta_path == 235)
			int abc = 23;
		for (path_pos = vsta_pathlist.begin(); path_pos!= vsta_pathlist.end(); path_pos++)
		{
			int path_id = (*path_pos).returnPathID();
			if (path_id == dta_path) 
			{
				(*path_pos).trackings( id,  type,  dta_departure,  sim_departure,  sim_exittime,  dta_path,  sim_path,  arrivaltime);
				break;
			}
		}
	}
	*/
	ofstream path_times ("D:\\Amber\\\corsim_test\\output\\path_vehs.xls");
	for (path_pos = vsta_pathlist.begin(); path_pos!= vsta_pathlist.end(); path_pos++)
	{
		int path_id = (*path_pos).returnPathID();
		vector <int> VehIDs = (*path_pos).returnVehIDs();
		path_times << path_id << "\t" << VehIDs.size() << "\n";
		/*
		vector <vector <int>> VehTimes=(*path_pos).returnVehTimes();
		for (int i = 0; i <VehIDs.size(); i++)
		{
			path_times<< VehIDs[i] <<"\t";
			for (int j =0; j < VehTimes[i].size(); j ++)
			{
				path_times<< VehTimes[i][j] <<"\t";					
			}
			path_times<< "\n";	
		}
		*/
	
	}
	for (path_pos = vsta_pathlist.begin(); path_pos!= vsta_pathlist.end(); path_pos++)
	{
		int pathid = (*path_pos).returnPathID();
		vector <int> links = (*path_pos).returnLinklist();
		vector <int> vehs = (*path_pos).returnVehIDs();
		vector <vector <int>>vehtimes = (*path_pos).returnVehTimes();
		for (int i = 0; i < links.size() - 1; i ++)
		{
			int upstream = links[i];
			int dnstream = links[i+1];
			for (lk_pos = linklist.begin(); lk_pos!= linklist.end(); lk_pos++)
			{
				int linkid = (*lk_pos).returnVistaID();
				if (linkid ==upstream)
				{ 
					if (upstream == 6167)
						int abc = 123;
					for (int j = 0; j < vehs.size(); j ++)
					{
						vector <int> inf;
						inf.push_back(dnstream);
						inf.push_back(vehs[j]);
						inf.push_back(vehtimes[j][i+1]);
						(*lk_pos).DnsVehs(inf);
					}
					break;
				}
			
			}			
		}
	}
	ofstream veh_times ("D:\\Amber\\\corsim_test\\output\\6167_volume.xls");

	for (lk_pos = linklist.begin(); lk_pos!= linklist.end(); lk_pos++)
	{
		if ((*lk_pos).returnVistaID()==6167)
		{ 
			vector <vector <int>> linkflow = (*lk_pos).returnLinkFlow();
			for (int i = 0; i < linkflow.size(); i++)
			{
				veh_times << linkflow[i][1]<<"\t" << linkflow[i][2]<<"\n" ;
			}

		}
	}		
}

void trfGeneration::Type11_Vista_LinkDescription()
{
	for (int num_char = 0; num_char < linklist.size();num_char++ )
	{
		if (vista_links[num_char][4] > 7999) continue;
		for (int j = 0; j < 80; j ++)	TRF_11.push_back(' ');
		TRF_11.push_back('\n');
	}

	ofstream output1 ("D:\\Amber\\\corsim_test\\output\\link_departure_nodes.xls");
	int lines = 0;
	for (int order = 0; order< vista_links.size(); order ++) 
	{
		if (vista_links[order][4] > 7999) continue;
		int id =0;
		int opposite = 0;
		int links = 0;
		int length = 0;
		int lanes = 0;
		int speed = 0;	
		vector <int> turn;
		vector <int> nodes; // upnode, downnode, left, through, right, diag, opposite 

		for( lk_pos = linklist.begin(); lk_pos != linklist.end(); lk_pos++)  //found the corsim node: 0 upnode, 1 downnode, 2 left,3 right, 4 through, 5 diag (opposite = through), 6 opposite node,
		{
			id = (*lk_pos).returnVistaID();
			if (vista_links[order][0] == id) 
			{
				turn = (*lk_pos).returnDownstreams();
				links = (*lk_pos).returnNumDns();
				nodes.resize(turn.size() + 3);
				std::fill(nodes.begin(),nodes.end(),0);				
				length = (*lk_pos).returnVistaLength();
				lanes = (*lk_pos).returnVistaLanes();
				speed = (*lk_pos).returnCorsimSpeed();

				break;
			}
		}
		for( lk_pos = linklist.begin(); lk_pos != linklist.end(); lk_pos++)
		{
			if (turn[1]==(*lk_pos).returnVistaID()) 
			{
				opposite = (*lk_pos).returnTwoways();
				break;
			}
		}
		int nums = 0;
		nodes[0] = vista_links[order][3];//for upnode, downnode,
		nodes[1] = vista_links[order][4];
		for (int i = 0; i < vista_links.size(); i ++)
		{
			for (int j = 0; j < turn.size(); j ++)//for downstream nodes
			{
				int dn_id = turn[j];
				if (turn[j] == 0) continue;
				if (vista_links[i][0] == dn_id)
				{
					nodes[2+j] = vista_links[i][4];
					nums++;
				}
				if (nums== links) break;
			}		
		}
		if ( opposite != 0) 
		{	
			if (nodes[3] < 8000) 
				nodes[6] = nodes[3];  //for opposite link's node
		}
		for (int i = 0; i < nodes.size(); i ++)
		{
			output1<<nodes[i]<<"\t";
		}
		output1<<"\n";
		int pos[7];
		pos[0] = 3; pos[1] = 7; pos[2] = 39; pos[3] = 43; pos[4] = 47; pos[5] = 51; pos[6] = 55; 
		for (int order1 = 0; order1 < (sizeof(pos)/sizeof(*pos)); order1++)
		{
			char buffer [16];
			if (nodes[order1] == 0) continue;
			sprintf(buffer, "%d",nodes[order1]);
			int tens = 0;
			while (float(nodes[order1]) / double(pow(10.0,tens))>=10) tens++;
			for (int j = 0; j <= tens; j++) 
			{
				TRF_11[lines*81 + pos[order1]- j]=buffer[tens-j];
			}
		}
			/* total position = 7
			0   1 -  4 Link's upstream node number (1-6999,7000-7999,8000-8999 Node ID)    3
			1   5 -  8 Link's downstream node number (1-6999,7000-7999,8000-8999 Node ID)  3
			2   37 - 40 Downstream node receiving left-turning traffic (1-6999,7000-7999,8000-8999 Node ID) 3
			3   41 - 44 Downstream node receiving through traffic (1-6999,7000-7999,8000-8999 Node ID)      3
			4   45 - 48 Downstream node receiving right-turning traffic (1-6999,7000-7999,8000-8999 Node ID)3 
			5   49 - 52 Downstream node receiving diagonal traffic (1-6999,7000-7999,8000-8999 Node ID)     3
			6   53 - 56 Upstream node for traffic opposing left-turning traffic (1-6999,7000-7999,8000-8999 Node ID) 3
			*/
			int pos1[3];
			pos1[0] = 11; //length
			pos1[1] = 21; //lanes
			pos1[2] = 67; //freeflowspeed		
			int inf[3]; inf[0] = length; inf[1]=lanes; inf[2] = speed;
			for (int order1 = 0; order1 <(sizeof(pos1)/sizeof(*pos1)); order1++)
			{
				char buffer [16];
				if (inf[order1] == 0) continue;
				if (vista_links[order][3] > 7999 && (order1 == 0 || order1 == 2  )) continue;
				sprintf(buffer, "%d",inf[order1]);
				int tens = 0;
				while (float(inf[order1]) / double(pow(10.0,tens))>=10) tens++;
				for (int j = 0; j <= tens; j++) 
				{
					TRF_11[lines*81 + pos1[order1]- j]=buffer[tens-j];
				}
			}
			/*
			2   9 - 12 Length of link (0,50-9999 Feet)                                     3 
			3   22 - 22 Number of lanes (1-9 Number of Lanes)                              0
			9   65 - 68 Desired free-flow speed (0,1-65 Miles Per Hour)                                             3		
			*/



			TRF_11[lines*81+27]='0';	//27 - 28 Grade (-9-9 Percentage)  
			TRF_11[lines*81+28]='1';    //29 - 29 Distribution Code. Queue discharge and start-up lost time characteristics. (1-4)
		
			TRF_11[lines*81+58]='2';
			TRF_11[lines*81+59]='0';    //57 - 60 Mean value of start-up lost time (0-99 Tenths of Seconds)
			TRF_11[lines*81+62]='1';   	
			TRF_11[lines*81+63]='8';	//61 - 64 Mean queue discharge headway (14-99 Tenths of Seconds)                                      3 

			TRF_11[lines*81+70]='1';	//71 - 71 Pedestrian code (0-3)
		
			TRF_11[lines*81+78]='1';
			TRF_11[lines*81+79]='1';
			
			lines++;

		}
	

}
void trfGeneration::Type21_TurnMovement()
{
	for (int num_char = 0; num_char <linklist.size();num_char++ )
	{
		for (int j = 0; j < 80; j ++)	TRF_21.push_back(' ');
		TRF_21.push_back('\n');
	}
	int i = 0;
	int pos[6]; //0=id position, 1 = x position, 2=y's position
	pos[0]= 3; pos[1]= 7; pos[2]=11; pos[3]=15; pos[4]=19; pos[5]=23; 
	ofstream output ("D:\\Amber\\\corsim_test\\output\\downstream_flow.xls");
	int lines = 0;
	for (lk_pos = linklist.begin(); lk_pos!= linklist.end(); lk_pos++)
	{
		int up = (*lk_pos).returnCorsimUp();
		int dn=(*lk_pos).returnCorsimDn();
		vector <vector <int>> linkflow = (*lk_pos).returnLinkFlow();  //0=dn's id, 1 = vehid, 2= time
		vector <int> turns = (*lk_pos).returnDownstreams();  //0=left, 1 = through, 2 = right, 3=diag
		vector <int> inf;
		inf.resize(turns.size()+2);
		std::fill(inf.begin(),inf.end(),0);	
		inf[0]=up; 		
		inf[1]=dn;	//0=upnode, 1 = downnode, 2 = up, 3=through, 4=right, 5=diag
		int linkid=(*lk_pos).returnVistaID();
		for (int i = 0; i < linkflow.size(); i ++)
		{
			if (linkflow[i][2] > 3600) continue;
			for (int j = 0; j < turns.size(); j ++)
			{
				if(linkflow[i][0]==turns[j])
				{
					inf[j+2]++;
					break;
				}
			}

		}
		for (int order1 = 0; order1 < (sizeof(pos)/sizeof(*pos)); order1++)
		{
			char buffer [16];
			sprintf(buffer, "%d",inf[order1]);
			int tens = 0;
			while (float(inf[order1]) / double(pow(10.0,tens))>=10) tens++;
			for (int j = 0; j <= tens; j++) 
			{
				TRF_21[lines*81 + pos[order1]- j]=buffer[tens-j];
			}
		}
		
		TRF_21[lines*81+78]='2';
		TRF_21[lines*81+79]='1';
		lines++;
		output<<linkid <<"\t"<<inf[0]<<"\t"<<inf[1]<<"\t"<<inf[2]<<"\t"<<inf[3]<<"\t"<<inf[4]<<"\t"<<inf[5]<<"\n";
	}

	/*
   Columns:
   1)  1 -  4 Upstream node number (1-6999,7000-7999,8000-8999 Node ID)
   2)  5 -  8 Downstream node number (1-6999,7000-7999 Node ID)
   3)  9 - 12 Left-turning traffic (0-9999 Percentage or Number of Vehicles)
   4) 13 - 16 Through traffic (0-9999 Percentage or Number of Vehicles)
   5) 17 - 20 Right-turning traffic (0-9999 Percentage or Number of Vehicles)
   6) 21 - 24 Diagonal-turning traffic (0-9999 Percentage or Number of Vehicles)
   11) 79 - 80 Record Type (21)	
	*/

}

void trfGeneration::UpstreamNodes()
{
	ofstream output ("D:\\Amber\\\corsim_test\\output\\UpstreamNodes.xls");
	for (nd_pos=vsta_ndlist.begin(); nd_pos!= vsta_ndlist.end(); nd_pos++)
	{
		int vsta_node = (*nd_pos).vsta_ID();
		int crsm_node = (*nd_pos).crsm_ID();
		
		int test = 0;
		for (int i = 0; i < total_corsim_nodes.size(); i++)
		{
			if (total_corsim_nodes[i] == crsm_node) 
			{
				test = 1;
				break;
			}
		}
		if (test == 0) total_corsim_nodes.push_back(crsm_node);
		if (test==1) continue;
		if (crsm_node > 7999) continue;
		
		vector <int> upnodes;
		for (int j = 0; j < vista_links.size(); j ++ )
		{
			int upnode = vista_links[j][3]; //corsim up node
			int dnnode = vista_links[j][4]; 
			if (crsm_node == dnnode) upnodes.push_back(upnode);
		}	
		(*nd_pos).UpNodes(upnodes);

		output << crsm_node<<"\t";
		for (int i = 0; i < upnodes.size(); i ++) output<<upnodes[i] <<"\t";
		output<<endl;
	}
}
void trfGeneration::Type35()
{
	int line1 = 0;
	for (int i = 0; i <total_corsim_nodes.size(); i ++)
	{
		if (total_corsim_nodes[i] > 7999) continue;
		for (int j = 0; j < 80; j ++)	TRF_35.push_back(' ');
		TRF_35.push_back('\n');
		line1++;
	}
	int pos[19];
	pos[0] = 3; pos[1] = 7; pos[2] = 11; pos[3] = 15; pos[4] = 19; pos[5] = 23; pos[6] = 27; pos[7] = 31; pos[8] = 35; pos[9] = 39; pos[10] = 43; 
	pos[11] = 47; pos[12] = 51; pos[13] = 55; pos[14] = 59; pos[15] = 63; pos[16] = 67; pos[17] = 71; pos[18] = 75; 

	
	int lines = 0;
	for (int i = 0; i <total_corsim_nodes.size(); i ++)
	{
		if (total_corsim_nodes[i] > 7999) continue;
		for (int j = i; j < vsta_ndlist.size(); j ++)
		{
			if (vsta_ndlist[j].crsm_ID() == total_corsim_nodes[i])
			{
				int inf[19] = {0};
				inf[0]=vsta_ndlist[j].crsm_ID();
				inf[1] = 0;   //  Reference offset to signal interval 1 (0-9999 Seconds)
				vector <int> upnodes= vsta_ndlist[j].returnUpNodes();
				if (upnodes.size() > 5) 
				{cout<< "TOO MANY UPSTREAM NODES! NODE ID = " << inf[0]<< "\n"; }
				for (int k = 0; k < upnodes.size(); k ++) inf[k+2]=upnodes[k];

				for (int order1 = 0; order1 < (sizeof(pos)/sizeof(*pos)); order1++)
				{
					char buffer [16];
					if(inf[order1] ==0) continue;

					sprintf(buffer, "%d",inf[order1]);
					int tens = 0;
					while (float(inf[order1]) / double(pow(10.0,tens))>=10) tens++;
					for (int k = 0; k <= tens; k++) 
					{
						TRF_35[lines*81 + pos[order1]- k]=buffer[tens-k];
					}
				}

				TRF_35[lines*81+78]='3';
				TRF_35[lines*81+79]='5';
				lines++;
				break;
			}
		}
	}
	/*for (nd_pos=vsta_ndlist.begin(); nd_pos!= vsta_ndlist.end(); nd_pos++)
	{	
		int test = 0;
		for (int i = 0; i < total_corsim_nodes.size(); i ++)
		{
			if ((*nd_pos).crsm_ID() == total_corsim_nodes[i]) 
			{
				total_corsim_nodes[i] = 0;
				test =1;
			}
		}
		if (test==0) continue;
		int inf[19] = {0};
		inf[0]=(*nd_pos).crsm_ID();
		inf[1] = 0;   //  Reference offset to signal interval 1 (0-9999 Seconds)
		vector <int> upnodes= (*nd_pos).returnUpNodes();
		if (upnodes.size() > 5) 
		{cout<< "TOO MANY UPSTREAM NODES! NODE ID = " << inf[0]<< "\n"; }
		for (int i = 0; i < upnodes.size(); i ++) inf[i+2]=upnodes[i];

		for (int order1 = 0; order1 < (sizeof(pos)/sizeof(*pos)); order1++)
		{
			char buffer [16];
			if(inf[order1] ==0) continue;

			sprintf(buffer, "%d",inf[order1]);
			int tens = 0;
			while (float(inf[order1]) / double(pow(10.0,tens))>=10) tens++;
			for (int j = 0; j <= tens; j++) 
			{
				TRF_35[lines*81 + pos[order1]- j]=buffer[tens-j];
			}
		}

		TRF_35[lines*81+78]='3';
		TRF_35[lines*81+79]='5';
		lines++;
	}*/
	
	/* Card Type: 35 (Sign or Pre-timed Signal Control Timing)
		1 -  4 Node number of the intersection (1-6999 Node ID)
		5 -  8 Reference offset to signal interval 1 (0-9999 Seconds)
		9 - 12 Upstream node number of approach link 1 (1-6999,7000-7999,8000-8999 Node ID)
		13 - 16 Upstream node number of approach link 2 (1-6999,7000-7999,8000-8999 Node ID)
		17 - 20 Upstream node number of approach link 3 (1-6999,7000-7999,8000-8999 Node ID)
		21 - 24 Upstream node number of approach link 4 (1-6999,7000-7999,8000-8999 Node ID)
		25 - 28 Upstream node number of approach link 5 (1-6999,7000-7999,8000-8999 Node ID)
		30 - 32 Duration of signal interval 1 (1-120 Seconds)
		34 - 36 Duration of signal interval 2 (1-120 Seconds)
		38 - 40 Duration of signal interval 3 (1-120 Seconds)
		42 - 44 Duration of signal interval 4 (1-120 Seconds)
		46 - 48 Duration of signal interval 5 (1-120 Seconds)
		50 - 52 Duration of signal interval 6 (1-120 Seconds)
		54 - 56 Duration of signal interval 7 (1-120 Seconds)
		58 - 60 Duration of signal interval 8 (1-120 Seconds)
		62 - 64 Duration of signal interval 9 (1-120 Seconds)
		66 - 68 Duration of signal interval 10 (1-120 Seconds)
		70 - 72 Duration of signal interval 11 (1-120 Seconds)
		74 - 76 Duration of signal interval 12 (1-120 Seconds)
		79 - 80 Record Type (35)
*/


}

void trfGeneration::Type36()
{
	int line1 = 0;
	for (int i = 0; i <total_corsim_nodes.size(); i ++)
	{
		if (total_corsim_nodes[i] > 7999) continue;
		for (int j = 0; j < 80; j ++)	TRF_36.push_back(' ');
		TRF_36.push_back('\n');
		line1++;
	}

	//int pos[12][5]; // 12 intervals, 5 links
	int lines = 0;
	int pos[6];
	pos[0] = 3; pos[1]=5; pos[2]=6; pos[3]=7; pos[4]=8; pos[5]=9; 
	for (int i = 0; i <total_corsim_nodes.size(); i ++)
	{
		if (total_corsim_nodes[i] > 7999) continue;
		for (int j = i; j < vsta_ndlist.size(); j ++)
		{
			if (vsta_ndlist[j].crsm_ID() == total_corsim_nodes[i])
			{
				vector <int> inf;				
				vector <int> upnodes= vsta_ndlist[j].returnUpNodes();
				inf.push_back(vsta_ndlist[j].crsm_ID());
				for (int k = 0; k < upnodes.size(); k++) inf.push_back(upnodes[k]);

				for (int order1 = 0; order1 < inf.size(); order1++)
				{
					char buffer [16];
					if (order1 != 0) inf[order1] = 1;
					sprintf(buffer, "%d",inf[order1]);
					int tens = 0;
					while (float(inf[order1]) / double(pow(10.0,tens))>=10) tens++;
					for (int k = 0; k <= tens; k++) 
					{
						TRF_36[lines*81 + pos[order1]- k]=buffer[tens-k];
					}
				}

				TRF_36[lines*81+78]='3';
				TRF_36[lines*81+79]='6';
				lines++;
				break;
			}
		}
	}

	/*	Card Type: 36 (Sign or Pre-timed Signal Control Codes)
	1 -  4 Node number of intersection (1-6999 Node ID)
	6 -  6 Control code for approach link 1, interval 1 (0-9, A)
	7 -  7 Control code for approach link 2, interval 1 (0-9, A)
	8 -  8 Control code for approach link 3, interval 1 (0-9, A)
	9 -  9 Control code for approach link 4, interval 1 (0-9, A)
	10 - 10 Control code for approach link 5, interval 1 (0-9, A)
	11 - 11 Control code for approach link 1, interval 2 (0-9, A)
	12 - 12 Control code for approach link 2, interval 2 (0-9, A)
	13 - 13 Control code for approach link 3, interval 2 (0-9, A)
	14 - 14 Control code for approach link 4, interval 2 (0-9, A)
	15 - 15 Control code for approach link 5, interval 2 (0-9, A)
	16 - 16 Control code for approach link 1, interval 3 (0-9, A)
	17 - 17 Control code for approach link 2, interval 3 (0-9, A)
	18 - 18 Control code for approach link 3, interval 3 (0-9, A)
	19 - 19 Control code for approach link 4, interval 3 (0-9, A)
	20 - 20 Control code for approach link 5, interval 3 (0-9, A)
	21 - 21 Control code for approach link 1, interval 4 (0-9, A)
	22 - 22 Control code for approach link 2, interval 4 (0-9, A)
	23 - 23 Control code for approach link 3, interval 4 (0-9, A)
	24 - 24 Control code for approach link 4, interval 4 (0-9, A)
	25 - 25 Control code for approach link 5, interval 4 (0-9, A)
	26 - 26 Control code for approach link 1, interval 5 (0-9, A)
	27 - 27 Control code for approach link 2, interval 5 (0-9, A)
	28 - 28 Control code for approach link 3, interval 5 (0-9, A)
	29 - 29 Control code for approach link 4, interval 5 (0-9, A)
	30 - 30 Control code for approach link 5, interval 5 (0-9, A)
	31 - 31 Control code for approach link 1, interval 6 (0-9, A)
	32 - 32 Control code for approach link 2, interval 6 (0-9, A)
	33 - 33 Control code for approach link 3, interval 6 (0-9, A)
	34 - 34 Control code for approach link 4, interval 6 (0-9, A)
	35 - 35 Control code for approach link 5, interval 6 (0-9, A)
	36 - 36 Control code for approach link 1, interval 7 (0-9, A)
	37 - 37 Control code for approach link 2, interval 7 (0-9, A)
	38 - 38 Control code for approach link 3, interval 7 (0-9, A)
	39 - 39 Control code for approach link 4, interval 7 (0-9, A)
	40 - 40 Control code for approach link 5, interval 7 (0-9, A)
	41 - 41 Control code for approach link 1, interval 8 (0-9, A)
	42 - 42 Control code for approach link 2, interval 8 (0-9, A)
	43 - 43 Control code for approach link 3, interval 8 (0-9, A)
	44 - 44 Control code for approach link 4, interval 8 (0-9, A)
	45 - 45 Control code for approach link 5, interval 8 (0-9, A)
	46 - 46 Control code for approach link 1, interval 9 (0-9, A)
	47 - 47 Control code for approach link 2, interval 9 (0-9, A)
	48 - 48 Control code for approach link 3, interval 9 (0-9, A)
	49 - 49 Control code for approach link 4, interval 9 (0-9, A)
	50 - 50 Control code for approach link 5, interval 9 (0-9, A)
	51 - 51 Control code for approach link 1, interval 10 (0-9, A)
	52 - 52 Control code for approach link 2, interval 10 (0-9, A)
	53 - 53 Control code for approach link 3, interval 10 (0-9, A)
	54 - 54 Control code for approach link 4, interval 10 (0-9, A)
	55 - 55 Control code for approach link 5, interval 10 (0-9, A)
	56 - 56 Control code for approach link 1, interval 11 (0-9, A)
	57 - 57 Control code for approach link 2, interval 11 (0-9, A)
	58 - 58 Control code for approach link 3, interval 11 (0-9, A)
	59 - 59 Control code for approach link 4, interval 11 (0-9, A)
	60 - 60 Control code for approach link 5, interval 11 (0-9, A)
	61 - 61 Control code for approach link 1, interval 12 (0-9, A)
	62 - 62 Control code for approach link 2, interval 12 (0-9, A)
	63 - 63 Control code for approach link 3, interval 12 (0-9, A)
	64 - 64 Control code for approach link 4, interval 12 (0-9, A)
	65 - 65 Control code for approach link 5, interval 12 (0-9, A)
	77 - 77 External Control Flag (0,2)
	79 - 80 Record Type (36)
*/

}

void trfGeneration::Type50()
{
	int line1 = 0;
	for (int i = 0; i < vista_links.size(); i ++)
	{
		if (vista_links[i][3] > 7999) //boundary link
		{
			for (int j = 0; j < 80; j ++)	TRF_50.push_back(' ');
			TRF_50.push_back('\n');
			line1++;			
		}
	}
	int lines = 0;
	int pos[2];
	pos[0] = 3; pos[1] = 7;

	for (int i = 0; i < vista_links.size(); i ++)
	{
		int upnode = vista_links[i][3];
		int dnnode = vista_links[i][4];
		if (upnode > 7999) //boundary link
		{
			int inf[2];
			inf[0] = upnode; inf[1] = dnnode;
			for (int order1 = 0; order1 < (sizeof(pos)/sizeof(*pos)); order1++)
			{
				char buffer [16];
				if(inf[order1] ==0) continue;

				sprintf(buffer, "%d",inf[order1]);
				int tens = 0;
				while (float(inf[order1]) / double(pow(10.0,tens))>=10) tens++;
				for (int k = 0; k <= tens; k++) 
				{
					TRF_50[lines*81 + pos[order1]- k]=buffer[tens-k];
				}
			}
			
			TRF_50[lines*81+11]='0'; //flow rate
			
			
			TRF_50[lines*81+22]='1';
			TRF_50[lines*81+23]='0';
			TRF_50[lines*81+24]='0'; //HOV violator percentage

			TRF_50[lines*81+78]='5';
			TRF_50[lines*81+79]='0';
			lines++;
		}
	}
	/*
	Card Type: 50 (Entry Link Volumes)
	Columns:
	1 -  4 Upstream node number (i) (8000-8999 Node ID)
	5 -  8 Downstream node number (j) (1-6999 Node ID)
	9 - 12 Flow rate entering from entry node number i on entry link (i,j) (0-9999 Vehicles Per Hour)
	
	21 - 25 HOV violator percentage (0-99999 Hundredths of Percentage)
	79 - 80 Record Type (50)
	*/

}
void trfGeneration::output()
{
	ofstream reviseTRF ("D:\\Amber\\\corsim_test\\revise_test.trf");
	for (int i = 0; i < pTRF.size() -1; i ++)
	{
		reviseTRF<<pTRF[i];
		//cout<<pTRF[i];
	}
	reviseTRF<<"\n\n";
	for (int i = 0; i < TRF_11.size() -1; i ++)
	{
		reviseTRF<<TRF_11[i];
	}
	reviseTRF<<"\n\n";
	for (int i = 0; i < TRF_21.size() -1; i ++)
	{
		reviseTRF<<TRF_21[i];
	}

	reviseTRF<<"\n\n";
	for (int i = 0; i < TRF_35.size() -1; i ++)
	{
		reviseTRF<<TRF_35[i];
	}

	reviseTRF<<"\n\n";
	for (int i = 0; i < TRF_36.size() -1; i ++)
	{
		reviseTRF<<TRF_36[i];
	}

	reviseTRF<<"\n\n";
	for (int i = 0; i < TRF_50.size() -1; i ++)
	{
		reviseTRF<<TRF_50[i];
	}

	reviseTRF<<"\n\n";
	for (int i = 0; i < TRF_170.size() -1; i ++)reviseTRF<<TRF_170[i];

	reviseTRF<<"\n\n";
	for (int i = 0; i < TRF_195.size() -1; i ++)
	{
		reviseTRF<<TRF_195[i];
		//cout<<pTRF[i];
	}
	reviseTRF<<"\n\n";
	for (int i = 0; i < TRF_210.size() -1; i ++)reviseTRF<<TRF_210[i];

}